…
```r
#choosing specific columns to focus on in analysis 
happiness_2021 <- subset(happiness_2021, select=c("country_name", "regional_indicator", "ladder_score", "logged_gdp_per_capita", "social_support", "healthy_life_expectancy", "freedom_to_make_life_choices", "generosity", "perceptions_of_corruption", "dystopia_residual"))
happiness_2021
```

```
## # A tibble: 149 x 10
##    country_name regional_indicator  ladder_score logged_gdp_per_~ social_support
##    <chr>        <chr>                      <dbl>            <dbl>          <dbl>
##  1 Finland      Western Europe              7.84             10.8          0.954
##  2 Denmark      Western Europe              7.62             10.9          0.954
##  3 Switzerland  Western Europe              7.57             11.1          0.942
##  4 Iceland      Western Europe              7.55             10.9          0.983
##  5 Netherlands  Western Europe              7.46             10.9          0.942
##  6 Norway       Western Europe              7.39             11.1          0.954
##  7 Sweden       Western Europe              7.36             10.9          0.934
##  8 Luxembourg   Western Europe              7.32             11.6          0.908
##  9 New Zealand  North America and ~         7.28             10.6          0.948
## 10 Austria      Western Europe              7.27             10.9          0.934
## # ... with 139 more rows, and 5 more variables: healthy_life_expectancy <dbl>,
## #   freedom_to_make_life_choices <dbl>, generosity <dbl>,
## #   perceptions_of_corruption <dbl>, dystopia_residual <dbl>
```
…
